{
  "page": 1,
  "per_page": 20,
  "photos": [
    {
      "id": 5968231,
      "width": 4912,
      "height": 7360,
      "url": "https://www.pexels.com/photo/photo-of-sliced-citrus-fruits-on-gray-background-5968231/",
      "photographer": "Vanessa Loring",
      "photographer_url": "https://www.pexels.com/@vanessa-loring",
      "photographer_id": 3398517,
      "avg_color": "#AC9F8E",
      "src": {
        "original": "https://images.pexels.com/photos/5968231/pexels-photo-5968231.jpeg",
        "large2x": "https://images.pexels.com/photos/5968231/pexels-photo-5968231.jpeg?auto=compress&cs=tinysrgb&dpr=2&h=650&w=940",
        "large": "https://images.pexels.com/photos/5968231/pexels-photo-5968231.jpeg?auto=compress&cs=tinysrgb&h=650&w=940",
        "medium": "https://images.pexels.com/photos/5968231/pexels-photo-5968231.jpeg?auto=compress&cs=tinysrgb&h=350",
        "small": "https://images.pexels.com/photos/5968231/pexels-photo-5968231.jpeg?auto=compress&cs=tinysrgb&h=130",
        "portrait": "https://images.pexels.com/photos/5968231/pexels-photo-5968231.jpeg?auto=compress&cs=tinysrgb&fit=crop&h=1200&w=800",
        "landscape": "https://images.pexels.com/photos/5968231/pexels-photo-5968231.jpeg?auto=compress&cs=tinysrgb&fit=crop&h=627&w=1200",
        "tiny": "https://images.pexels.com/photos/5968231/pexels-photo-5968231.jpeg?auto=compress&cs=tinysrgb&dpr=1&fit=crop&h=200&w=280"
      },
      "liked": false
    },
    {
      "id": 5799685,
      "width": 4000,
      "height": 6000,
      "url": "https://www.pexels.com/photo/red-and-yellow-citrus-fruits-on-brown-plate-5799685/",
      "photographer": "Ivan Samkov",
      "photographer_url": "https://www.pexels.com/@ivan-samkov",
      "photographer_id": 2563618,
      "avg_color": "#BE6F47",
      "src": {
        "original": "https://images.pexels.com/photos/5799685/pexels-photo-5799685.jpeg",
        "large2x": "https://images.pexels.com/photos/5799685/pexels-photo-5799685.jpeg?auto=compress&cs=tinysrgb&dpr=2&h=650&w=940",
        "large": "https://images.pexels.com/photos/5799685/pexels-photo-5799685.jpeg?auto=compress&cs=tinysrgb&h=650&w=940",
        "medium": "https://images.pexels.com/photos/5799685/pexels-photo-5799685.jpeg?auto=compress&cs=tinysrgb&h=350",
        "small": "https://images.pexels.com/photos/5799685/pexels-photo-5799685.jpeg?auto=compress&cs=tinysrgb&h=130",
        "portrait": "https://images.pexels.com/photos/5799685/pexels-photo-5799685.jpeg?auto=compress&cs=tinysrgb&fit=crop&h=1200&w=800",
        "landscape": "https://images.pexels.com/photos/5799685/pexels-photo-5799685.jpeg?auto=compress&cs=tinysrgb&fit=crop&h=627&w=1200",
        "tiny": "https://images.pexels.com/photos/5799685/pexels-photo-5799685.jpeg?auto=compress&cs=tinysrgb&dpr=1&fit=crop&h=200&w=280"
      },
      "liked": false
    },
    {
      "id": 5966630,
      "width": 7360,
      "height": 4912,
      "url": "https://www.pexels.com/photo/yellow-banana-fruits-on-brown-surface-5966630/",
      "photographer": "Vanessa Loring",
      "photographer_url": "https://www.pexels.com/@vanessa-loring",
      "photographer_id": 3398517,
      "avg_color": "#A87C3A",
      "src": {
        "original": "https://images.pexels.com/photos/5966630/pexels-photo-5966630.jpeg",
        "large2x": "https://images.pexels.com/photos/5966630/pexels-photo-5966630.jpeg?auto=compress&cs=tinysrgb&dpr=2&h=650&w=940",
        "large": "https://images.pexels.com/photos/5966630/pexels-photo-5966630.jpeg?auto=compress&cs=tinysrgb&h=650&w=940",
        "medium": "https://images.pexels.com/photos/5966630/pexels-photo-5966630.jpeg?auto=compress&cs=tinysrgb&h=350",
        "small": "https://images.pexels.com/photos/5966630/pexels-photo-5966630.jpeg?auto=compress&cs=tinysrgb&h=130",
        "portrait": "https://images.pexels.com/photos/5966630/pexels-photo-5966630.jpeg?auto=compress&cs=tinysrgb&fit=crop&h=1200&w=800",
        "landscape": "https://images.pexels.com/photos/5966630/pexels-photo-5966630.jpeg?auto=compress&cs=tinysrgb&fit=crop&h=627&w=1200",
        "tiny": "https://images.pexels.com/photos/5966630/pexels-photo-5966630.jpeg?auto=compress&cs=tinysrgb&dpr=1&fit=crop&h=200&w=280"
      },
      "liked": false
    },
    {
      "id": 4230621,
      "width": 4385,
      "height": 6577,
      "url": "https://www.pexels.com/photo/assorted-ripe-fruits-placed-on-white-table-on-gray-background-4230621/",
      "photographer": "Karolina Grabowska",
      "photographer_url": "https://www.pexels.com/@karolina-grabowska",
      "photographer_id": 2332540,
      "avg_color": "#D3CDC4",
      "src": {
        "original": "https://images.pexels.com/photos/4230621/pexels-photo-4230621.jpeg",
        "large2x": "https://images.pexels.com/photos/4230621/pexels-photo-4230621.jpeg?auto=compress&cs=tinysrgb&dpr=2&h=650&w=940",
        "large": "https://images.pexels.com/photos/4230621/pexels-photo-4230621.jpeg?auto=compress&cs=tinysrgb&h=650&w=940",
        "medium": "https://images.pexels.com/photos/4230621/pexels-photo-4230621.jpeg?auto=compress&cs=tinysrgb&h=350",
        "small": "https://images.pexels.com/photos/4230621/pexels-photo-4230621.jpeg?auto=compress&cs=tinysrgb&h=130",
        "portrait": "https://images.pexels.com/photos/4230621/pexels-photo-4230621.jpeg?auto=compress&cs=tinysrgb&fit=crop&h=1200&w=800",
        "landscape": "https://images.pexels.com/photos/4230621/pexels-photo-4230621.jpeg?auto=compress&cs=tinysrgb&fit=crop&h=627&w=1200",
        "tiny": "https://images.pexels.com/photos/4230621/pexels-photo-4230621.jpeg?auto=compress&cs=tinysrgb&dpr=1&fit=crop&h=200&w=280"
      },
      "liked": false
    },
    {
      "id": 3768323,
      "width": 4833,
      "height": 6766,
      "url": "https://www.pexels.com/photo/assorted-citrus-fruits-in-cotton-sack-on-white-surface-3768323/",
      "photographer": "Nadi Lindsay",
      "photographer_url": "https://www.pexels.com/@nadi-lindsay-1130679",
      "photographer_id": 1130679,
      "avg_color": "#CFC8B9",
      "src": {
        "original": "https://images.pexels.com/photos/3768323/pexels-photo-3768323.jpeg",
        "large2x": "https://images.pexels.com/photos/3768323/pexels-photo-3768323.jpeg?auto=compress&cs=tinysrgb&dpr=2&h=650&w=940",
        "large": "https://images.pexels.com/photos/3768323/pexels-photo-3768323.jpeg?auto=compress&cs=tinysrgb&h=650&w=940",
        "medium": "https://images.pexels.com/photos/3768323/pexels-photo-3768323.jpeg?auto=compress&cs=tinysrgb&h=350",
        "small": "https://images.pexels.com/photos/3768323/pexels-photo-3768323.jpeg?auto=compress&cs=tinysrgb&h=130",
        "portrait": "https://images.pexels.com/photos/3768323/pexels-photo-3768323.jpeg?auto=compress&cs=tinysrgb&fit=crop&h=1200&w=800",
        "landscape": "https://images.pexels.com/photos/3768323/pexels-photo-3768323.jpeg?auto=compress&cs=tinysrgb&fit=crop&h=627&w=1200",
        "tiny": "https://images.pexels.com/photos/3768323/pexels-photo-3768323.jpeg?auto=compress&cs=tinysrgb&dpr=1&fit=crop&h=200&w=280"
      },
      "liked": false
    },
    {
      "id": 5638268,
      "width": 5504,
      "height": 8256,
      "url": "https://www.pexels.com/photo/delicious-fruit-dessert-on-festive-tablegr-5638268/",
      "photographer": "Askar Abayev",
      "photographer_url": "https://www.pexels.com/@askar-abayev",
      "photographer_id": 3674690,
      "avg_color": "#997561",
      "src": {
        "original": "https://images.pexels.com/photos/5638268/pexels-photo-5638268.jpeg",
        "large2x": "https://images.pexels.com/photos/5638268/pexels-photo-5638268.jpeg?auto=compress&cs=tinysrgb&dpr=2&h=650&w=940",
        "large": "https://images.pexels.com/photos/5638268/pexels-photo-5638268.jpeg?auto=compress&cs=tinysrgb&h=650&w=940",
        "medium": "https://images.pexels.com/photos/5638268/pexels-photo-5638268.jpeg?auto=compress&cs=tinysrgb&h=350",
        "small": "https://images.pexels.com/photos/5638268/pexels-photo-5638268.jpeg?auto=compress&cs=tinysrgb&h=130",
        "portrait": "https://images.pexels.com/photos/5638268/pexels-photo-5638268.jpeg?auto=compress&cs=tinysrgb&fit=crop&h=1200&w=800",
        "landscape": "https://images.pexels.com/photos/5638268/pexels-photo-5638268.jpeg?auto=compress&cs=tinysrgb&fit=crop&h=627&w=1200",
        "tiny": "https://images.pexels.com/photos/5638268/pexels-photo-5638268.jpeg?auto=compress&cs=tinysrgb&dpr=1&fit=crop&h=200&w=280"
      },
      "liked": false
    },
    {
      "id": 2852438,
      "width": 3018,
      "height": 3018,
      "url": "https://www.pexels.com/photo/cherries-2852438/",
      "photographer": "Анна Галашева",
      "photographer_url": "https://www.pexels.com/@1480914",
      "photographer_id": 1480914,
      "avg_color": "#A19187",
      "src": {
        "original": "https://images.pexels.com/photos/2852438/pexels-photo-2852438.jpeg",
        "large2x": "https://images.pexels.com/photos/2852438/pexels-photo-2852438.jpeg?auto=compress&cs=tinysrgb&dpr=2&h=650&w=940",
        "large": "https://images.pexels.com/photos/2852438/pexels-photo-2852438.jpeg?auto=compress&cs=tinysrgb&h=650&w=940",
        "medium": "https://images.pexels.com/photos/2852438/pexels-photo-2852438.jpeg?auto=compress&cs=tinysrgb&h=350",
        "small": "https://images.pexels.com/photos/2852438/pexels-photo-2852438.jpeg?auto=compress&cs=tinysrgb&h=130",
        "portrait": "https://images.pexels.com/photos/2852438/pexels-photo-2852438.jpeg?auto=compress&cs=tinysrgb&fit=crop&h=1200&w=800",
        "landscape": "https://images.pexels.com/photos/2852438/pexels-photo-2852438.jpeg?auto=compress&cs=tinysrgb&fit=crop&h=627&w=1200",
        "tiny": "https://images.pexels.com/photos/2852438/pexels-photo-2852438.jpeg?auto=compress&cs=tinysrgb&dpr=1&fit=crop&h=200&w=280"
      },
      "liked": false
    },
    {
      "id": 3326533,
      "width": 5760,
      "height": 3840,
      "url": "https://www.pexels.com/photo/food-healthy-fruits-grapes-3326533/",
      "photographer": "Daria Shevtsova",
      "photographer_url": "https://www.pexels.com/@daria",
      "photographer_id": 220024,
      "avg_color": "#726658",
      "src": {
        "original": "https://images.pexels.com/photos/3326533/pexels-photo-3326533.jpeg",
        "large2x": "https://images.pexels.com/photos/3326533/pexels-photo-3326533.jpeg?auto=compress&cs=tinysrgb&dpr=2&h=650&w=940",
        "large": "https://images.pexels.com/photos/3326533/pexels-photo-3326533.jpeg?auto=compress&cs=tinysrgb&h=650&w=940",
        "medium": "https://images.pexels.com/photos/3326533/pexels-photo-3326533.jpeg?auto=compress&cs=tinysrgb&h=350",
        "small": "https://images.pexels.com/photos/3326533/pexels-photo-3326533.jpeg?auto=compress&cs=tinysrgb&h=130",
        "portrait": "https://images.pexels.com/photos/3326533/pexels-photo-3326533.jpeg?auto=compress&cs=tinysrgb&fit=crop&h=1200&w=800",
        "landscape": "https://images.pexels.com/photos/3326533/pexels-photo-3326533.jpeg?auto=compress&cs=tinysrgb&fit=crop&h=627&w=1200",
        "tiny": "https://images.pexels.com/photos/3326533/pexels-photo-3326533.jpeg?auto=compress&cs=tinysrgb&dpr=1&fit=crop&h=200&w=280"
      },
      "liked": false
    },
    {
      "id": 3645504,
      "width": 3836,
      "height": 5754,
      "url": "https://www.pexels.com/photo/fruits-in-a-plastic-bag-3645504/",
      "photographer": "Anna Shvets",
      "photographer_url": "https://www.pexels.com/@shvetsa",
      "photographer_id": 1984515,
      "avg_color": "#B0AEA4",
      "src": {
        "original": "https://images.pexels.com/photos/3645504/pexels-photo-3645504.jpeg",
        "large2x": "https://images.pexels.com/photos/3645504/pexels-photo-3645504.jpeg?auto=compress&cs=tinysrgb&dpr=2&h=650&w=940",
        "large": "https://images.pexels.com/photos/3645504/pexels-photo-3645504.jpeg?auto=compress&cs=tinysrgb&h=650&w=940",
        "medium": "https://images.pexels.com/photos/3645504/pexels-photo-3645504.jpeg?auto=compress&cs=tinysrgb&h=350",
        "small": "https://images.pexels.com/photos/3645504/pexels-photo-3645504.jpeg?auto=compress&cs=tinysrgb&h=130",
        "portrait": "https://images.pexels.com/photos/3645504/pexels-photo-3645504.jpeg?auto=compress&cs=tinysrgb&fit=crop&h=1200&w=800",
        "landscape": "https://images.pexels.com/photos/3645504/pexels-photo-3645504.jpeg?auto=compress&cs=tinysrgb&fit=crop&h=627&w=1200",
        "tiny": "https://images.pexels.com/photos/3645504/pexels-photo-3645504.jpeg?auto=compress&cs=tinysrgb&dpr=1&fit=crop&h=200&w=280"
      },
      "liked": false
    },
    {
      "id": 5742698,
      "width": 4000,
      "height": 6000,
      "url": "https://www.pexels.com/photo/photo-of-fruits-and-spices-on-table-5742698/",
      "photographer": "olia danilevich",
      "photographer_url": "https://www.pexels.com/@olia-danilevich",
      "photographer_id": 2638647,
      "avg_color": "#7C5B4C",
      "src": {
        "original": "https://images.pexels.com/photos/5742698/pexels-photo-5742698.jpeg",
        "large2x": "https://images.pexels.com/photos/5742698/pexels-photo-5742698.jpeg?auto=compress&cs=tinysrgb&dpr=2&h=650&w=940",
        "large": "https://images.pexels.com/photos/5742698/pexels-photo-5742698.jpeg?auto=compress&cs=tinysrgb&h=650&w=940",
        "medium": "https://images.pexels.com/photos/5742698/pexels-photo-5742698.jpeg?auto=compress&cs=tinysrgb&h=350",
        "small": "https://images.pexels.com/photos/5742698/pexels-photo-5742698.jpeg?auto=compress&cs=tinysrgb&h=130",
        "portrait": "https://images.pexels.com/photos/5742698/pexels-photo-5742698.jpeg?auto=compress&cs=tinysrgb&fit=crop&h=1200&w=800",
        "landscape": "https://images.pexels.com/photos/5742698/pexels-photo-5742698.jpeg?auto=compress&cs=tinysrgb&fit=crop&h=627&w=1200",
        "tiny": "https://images.pexels.com/photos/5742698/pexels-photo-5742698.jpeg?auto=compress&cs=tinysrgb&dpr=1&fit=crop&h=200&w=280"
      },
      "liked": false
    },
    {
      "id": 1352243,
      "width": 4928,
      "height": 3264,
      "url": "https://www.pexels.com/photo/selective-focus-photography-of-apple-fruits-1352243/",
      "photographer": "Lukas",
      "photographer_url": "https://www.pexels.com/@goumbik",
      "photographer_id": 89898,
      "avg_color": "#998156",
      "src": {
        "original": "https://images.pexels.com/photos/1352243/pexels-photo-1352243.jpeg",
        "large2x": "https://images.pexels.com/photos/1352243/pexels-photo-1352243.jpeg?auto=compress&cs=tinysrgb&dpr=2&h=650&w=940",
        "large": "https://images.pexels.com/photos/1352243/pexels-photo-1352243.jpeg?auto=compress&cs=tinysrgb&h=650&w=940",
        "medium": "https://images.pexels.com/photos/1352243/pexels-photo-1352243.jpeg?auto=compress&cs=tinysrgb&h=350",
        "small": "https://images.pexels.com/photos/1352243/pexels-photo-1352243.jpeg?auto=compress&cs=tinysrgb&h=130",
        "portrait": "https://images.pexels.com/photos/1352243/pexels-photo-1352243.jpeg?auto=compress&cs=tinysrgb&fit=crop&h=1200&w=800",
        "landscape": "https://images.pexels.com/photos/1352243/pexels-photo-1352243.jpeg?auto=compress&cs=tinysrgb&fit=crop&h=627&w=1200",
        "tiny": "https://images.pexels.com/photos/1352243/pexels-photo-1352243.jpeg?auto=compress&cs=tinysrgb&dpr=1&fit=crop&h=200&w=280"
      },
      "liked": false
    },
    {
      "id": 2288683,
      "width": 3096,
      "height": 4128,
      "url": "https://www.pexels.com/photo/oranges-2288683/",
      "photographer": "Marco Antonio Victorino",
      "photographer_url": "https://www.pexels.com/@victorino",
      "photographer_id": 79163,
      "avg_color": "#947E1A",
      "src": {
        "original": "https://images.pexels.com/photos/2288683/pexels-photo-2288683.jpeg",
        "large2x": "https://images.pexels.com/photos/2288683/pexels-photo-2288683.jpeg?auto=compress&cs=tinysrgb&dpr=2&h=650&w=940",
        "large": "https://images.pexels.com/photos/2288683/pexels-photo-2288683.jpeg?auto=compress&cs=tinysrgb&h=650&w=940",
        "medium": "https://images.pexels.com/photos/2288683/pexels-photo-2288683.jpeg?auto=compress&cs=tinysrgb&h=350",
        "small": "https://images.pexels.com/photos/2288683/pexels-photo-2288683.jpeg?auto=compress&cs=tinysrgb&h=130",
        "portrait": "https://images.pexels.com/photos/2288683/pexels-photo-2288683.jpeg?auto=compress&cs=tinysrgb&fit=crop&h=1200&w=800",
        "landscape": "https://images.pexels.com/photos/2288683/pexels-photo-2288683.jpeg?auto=compress&cs=tinysrgb&fit=crop&h=627&w=1200",
        "tiny": "https://images.pexels.com/photos/2288683/pexels-photo-2288683.jpeg?auto=compress&cs=tinysrgb&dpr=1&fit=crop&h=200&w=280"
      },
      "liked": false
    },
    {
      "id": 2288692,
      "width": 3096,
      "height": 4128,
      "url": "https://www.pexels.com/photo/watermelons-2288692/",
      "photographer": "Marco Antonio Victorino",
      "photographer_url": "https://www.pexels.com/@victorino",
      "photographer_id": 79163,
      "avg_color": "#4A5C29",
      "src": {
        "original": "https://images.pexels.com/photos/2288692/pexels-photo-2288692.jpeg",
        "large2x": "https://images.pexels.com/photos/2288692/pexels-photo-2288692.jpeg?auto=compress&cs=tinysrgb&dpr=2&h=650&w=940",
        "large": "https://images.pexels.com/photos/2288692/pexels-photo-2288692.jpeg?auto=compress&cs=tinysrgb&h=650&w=940",
        "medium": "https://images.pexels.com/photos/2288692/pexels-photo-2288692.jpeg?auto=compress&cs=tinysrgb&h=350",
        "small": "https://images.pexels.com/photos/2288692/pexels-photo-2288692.jpeg?auto=compress&cs=tinysrgb&h=130",
        "portrait": "https://images.pexels.com/photos/2288692/pexels-photo-2288692.jpeg?auto=compress&cs=tinysrgb&fit=crop&h=1200&w=800",
        "landscape": "https://images.pexels.com/photos/2288692/pexels-photo-2288692.jpeg?auto=compress&cs=tinysrgb&fit=crop&h=627&w=1200",
        "tiny": "https://images.pexels.com/photos/2288692/pexels-photo-2288692.jpeg?auto=compress&cs=tinysrgb&dpr=1&fit=crop&h=200&w=280"
      },
      "liked": false
    },
    {
      "id": 2253316,
      "width": 3504,
      "height": 2336,
      "url": "https://www.pexels.com/photo/bunch-of-red-and-orange-apples-2253316/",
      "photographer": "Mark Stebnicki",
      "photographer_url": "https://www.pexels.com/@nc-farm-bureau-mark",
      "photographer_id": 1182693,
      "avg_color": "#935F42",
      "src": {
        "original": "https://images.pexels.com/photos/2253316/pexels-photo-2253316.jpeg",
        "large2x": "https://images.pexels.com/photos/2253316/pexels-photo-2253316.jpeg?auto=compress&cs=tinysrgb&dpr=2&h=650&w=940",
        "large": "https://images.pexels.com/photos/2253316/pexels-photo-2253316.jpeg?auto=compress&cs=tinysrgb&h=650&w=940",
        "medium": "https://images.pexels.com/photos/2253316/pexels-photo-2253316.jpeg?auto=compress&cs=tinysrgb&h=350",
        "small": "https://images.pexels.com/photos/2253316/pexels-photo-2253316.jpeg?auto=compress&cs=tinysrgb&h=130",
        "portrait": "https://images.pexels.com/photos/2253316/pexels-photo-2253316.jpeg?auto=compress&cs=tinysrgb&fit=crop&h=1200&w=800",
        "landscape": "https://images.pexels.com/photos/2253316/pexels-photo-2253316.jpeg?auto=compress&cs=tinysrgb&fit=crop&h=627&w=1200",
        "tiny": "https://images.pexels.com/photos/2253316/pexels-photo-2253316.jpeg?auto=compress&cs=tinysrgb&dpr=1&fit=crop&h=200&w=280"
      },
      "liked": false
    },
    {
      "id": 3252766,
      "width": 6720,
      "height": 4480,
      "url": "https://www.pexels.com/photo/photo-of-assorted-fruits-3252766/",
      "photographer": "Engin Akyurt",
      "photographer_url": "https://www.pexels.com/@enginakyurt",
      "photographer_id": 631997,
      "avg_color": "#8E7A4F",
      "src": {
        "original": "https://images.pexels.com/photos/3252766/pexels-photo-3252766.jpeg",
        "large2x": "https://images.pexels.com/photos/3252766/pexels-photo-3252766.jpeg?auto=compress&cs=tinysrgb&dpr=2&h=650&w=940",
        "large": "https://images.pexels.com/photos/3252766/pexels-photo-3252766.jpeg?auto=compress&cs=tinysrgb&h=650&w=940",
        "medium": "https://images.pexels.com/photos/3252766/pexels-photo-3252766.jpeg?auto=compress&cs=tinysrgb&h=350",
        "small": "https://images.pexels.com/photos/3252766/pexels-photo-3252766.jpeg?auto=compress&cs=tinysrgb&h=130",
        "portrait": "https://images.pexels.com/photos/3252766/pexels-photo-3252766.jpeg?auto=compress&cs=tinysrgb&fit=crop&h=1200&w=800",
        "landscape": "https://images.pexels.com/photos/3252766/pexels-photo-3252766.jpeg?auto=compress&cs=tinysrgb&fit=crop&h=627&w=1200",
        "tiny": "https://images.pexels.com/photos/3252766/pexels-photo-3252766.jpeg?auto=compress&cs=tinysrgb&dpr=1&fit=crop&h=200&w=280"
      },
      "liked": false
    },
    {
      "id": 4397921,
      "width": 6720,
      "height": 4480,
      "url": "https://www.pexels.com/photo/organic-sweet-apricots-in-cotton-sack-placed-on-table-4397921/",
      "photographer": "Karolina Grabowska",
      "photographer_url": "https://www.pexels.com/@karolina-grabowska",
      "photographer_id": 2332540,
      "avg_color": "#D7C9BD",
      "src": {
        "original": "https://images.pexels.com/photos/4397921/pexels-photo-4397921.jpeg",
        "large2x": "https://images.pexels.com/photos/4397921/pexels-photo-4397921.jpeg?auto=compress&cs=tinysrgb&dpr=2&h=650&w=940",
        "large": "https://images.pexels.com/photos/4397921/pexels-photo-4397921.jpeg?auto=compress&cs=tinysrgb&h=650&w=940",
        "medium": "https://images.pexels.com/photos/4397921/pexels-photo-4397921.jpeg?auto=compress&cs=tinysrgb&h=350",
        "small": "https://images.pexels.com/photos/4397921/pexels-photo-4397921.jpeg?auto=compress&cs=tinysrgb&h=130",
        "portrait": "https://images.pexels.com/photos/4397921/pexels-photo-4397921.jpeg?auto=compress&cs=tinysrgb&fit=crop&h=1200&w=800",
        "landscape": "https://images.pexels.com/photos/4397921/pexels-photo-4397921.jpeg?auto=compress&cs=tinysrgb&fit=crop&h=627&w=1200",
        "tiny": "https://images.pexels.com/photos/4397921/pexels-photo-4397921.jpeg?auto=compress&cs=tinysrgb&dpr=1&fit=crop&h=200&w=280"
      },
      "liked": false
    },
    {
      "id": 964544,
      "width": 4016,
      "height": 6016,
      "url": "https://www.pexels.com/photo/three-orange-fruits-and-analog-scale-964544/",
      "photographer": "Eneida Nieves",
      "photographer_url": "https://www.pexels.com/@fariphotography",
      "photographer_id": 223940,
      "avg_color": "#1D130E",
      "src": {
        "original": "https://images.pexels.com/photos/964544/pexels-photo-964544.jpeg",
        "large2x": "https://images.pexels.com/photos/964544/pexels-photo-964544.jpeg?auto=compress&cs=tinysrgb&dpr=2&h=650&w=940",
        "large": "https://images.pexels.com/photos/964544/pexels-photo-964544.jpeg?auto=compress&cs=tinysrgb&h=650&w=940",
        "medium": "https://images.pexels.com/photos/964544/pexels-photo-964544.jpeg?auto=compress&cs=tinysrgb&h=350",
        "small": "https://images.pexels.com/photos/964544/pexels-photo-964544.jpeg?auto=compress&cs=tinysrgb&h=130",
        "portrait": "https://images.pexels.com/photos/964544/pexels-photo-964544.jpeg?auto=compress&cs=tinysrgb&fit=crop&h=1200&w=800",
        "landscape": "https://images.pexels.com/photos/964544/pexels-photo-964544.jpeg?auto=compress&cs=tinysrgb&fit=crop&h=627&w=1200",
        "tiny": "https://images.pexels.com/photos/964544/pexels-photo-964544.jpeg?auto=compress&cs=tinysrgb&dpr=1&fit=crop&h=200&w=280"
      },
      "liked": false
    },
    {
      "id": 5645122,
      "width": 4568,
      "height": 3048,
      "url": "https://www.pexels.com/photo/board-with-pears-and-honey-near-grapes-5645122/",
      "photographer": "Polina Kovaleva",
      "photographer_url": "https://www.pexels.com/@polina-kovaleva",
      "photographer_id": 3511482,
      "avg_color": "#413023",
      "src": {
        "original": "https://images.pexels.com/photos/5645122/pexels-photo-5645122.jpeg",
        "large2x": "https://images.pexels.com/photos/5645122/pexels-photo-5645122.jpeg?auto=compress&cs=tinysrgb&dpr=2&h=650&w=940",
        "large": "https://images.pexels.com/photos/5645122/pexels-photo-5645122.jpeg?auto=compress&cs=tinysrgb&h=650&w=940",
        "medium": "https://images.pexels.com/photos/5645122/pexels-photo-5645122.jpeg?auto=compress&cs=tinysrgb&h=350",
        "small": "https://images.pexels.com/photos/5645122/pexels-photo-5645122.jpeg?auto=compress&cs=tinysrgb&h=130",
        "portrait": "https://images.pexels.com/photos/5645122/pexels-photo-5645122.jpeg?auto=compress&cs=tinysrgb&fit=crop&h=1200&w=800",
        "landscape": "https://images.pexels.com/photos/5645122/pexels-photo-5645122.jpeg?auto=compress&cs=tinysrgb&fit=crop&h=627&w=1200",
        "tiny": "https://images.pexels.com/photos/5645122/pexels-photo-5645122.jpeg?auto=compress&cs=tinysrgb&dpr=1&fit=crop&h=200&w=280"
      },
      "liked": false
    },
    {
      "id": 1679720,
      "width": 3840,
      "height": 5760,
      "url": "https://www.pexels.com/photo/food-healthy-fruits-blur-1679720/",
      "photographer": "Markus Spiske",
      "photographer_url": "https://www.pexels.com/@markusspiske",
      "photographer_id": 19851,
      "avg_color": "#6D5C5D",
      "src": {
        "original": "https://images.pexels.com/photos/1679720/pexels-photo-1679720.jpeg",
        "large2x": "https://images.pexels.com/photos/1679720/pexels-photo-1679720.jpeg?auto=compress&cs=tinysrgb&dpr=2&h=650&w=940",
        "large": "https://images.pexels.com/photos/1679720/pexels-photo-1679720.jpeg?auto=compress&cs=tinysrgb&h=650&w=940",
        "medium": "https://images.pexels.com/photos/1679720/pexels-photo-1679720.jpeg?auto=compress&cs=tinysrgb&h=350",
        "small": "https://images.pexels.com/photos/1679720/pexels-photo-1679720.jpeg?auto=compress&cs=tinysrgb&h=130",
        "portrait": "https://images.pexels.com/photos/1679720/pexels-photo-1679720.jpeg?auto=compress&cs=tinysrgb&fit=crop&h=1200&w=800",
        "landscape": "https://images.pexels.com/photos/1679720/pexels-photo-1679720.jpeg?auto=compress&cs=tinysrgb&fit=crop&h=627&w=1200",
        "tiny": "https://images.pexels.com/photos/1679720/pexels-photo-1679720.jpeg?auto=compress&cs=tinysrgb&dpr=1&fit=crop&h=200&w=280"
      },
      "liked": false
    },
    {
      "id": 2286781,
      "width": 3096,
      "height": 4128,
      "url": "https://www.pexels.com/photo/yello-fruits-lot-2286781/",
      "photographer": "Marco Antonio Victorino",
      "photographer_url": "https://www.pexels.com/@victorino",
      "photographer_id": 79163,
      "avg_color": "#B4802A",
      "src": {
        "original": "https://images.pexels.com/photos/2286781/pexels-photo-2286781.jpeg",
        "large2x": "https://images.pexels.com/photos/2286781/pexels-photo-2286781.jpeg?auto=compress&cs=tinysrgb&dpr=2&h=650&w=940",
        "large": "https://images.pexels.com/photos/2286781/pexels-photo-2286781.jpeg?auto=compress&cs=tinysrgb&h=650&w=940",
        "medium": "https://images.pexels.com/photos/2286781/pexels-photo-2286781.jpeg?auto=compress&cs=tinysrgb&h=350",
        "small": "https://images.pexels.com/photos/2286781/pexels-photo-2286781.jpeg?auto=compress&cs=tinysrgb&h=130",
        "portrait": "https://images.pexels.com/photos/2286781/pexels-photo-2286781.jpeg?auto=compress&cs=tinysrgb&fit=crop&h=1200&w=800",
        "landscape": "https://images.pexels.com/photos/2286781/pexels-photo-2286781.jpeg?auto=compress&cs=tinysrgb&fit=crop&h=627&w=1200",
        "tiny": "https://images.pexels.com/photos/2286781/pexels-photo-2286781.jpeg?auto=compress&cs=tinysrgb&dpr=1&fit=crop&h=200&w=280"
      },
      "liked": false
    }
  ],
  "total_results": 8000,
  "next_page": "https://api.pexels.com/v1/search/?page=2&per_page=20&query=fruits"
}